{
    "name": "Welcome to the Jungle",
    "jobs": [
      {
        "id": 154469,
        "reference": "WTTJ_9op5bO8",
        "name": "Technical Recruiter",
        "slug": "technical-recruiter_paris",
        "description": "<p>Welcome to the Jungle a été créé en 2015 pour répondre au besoin croissant de sens et d’épanouissement professionnel. Depuis, de nombreux projets ont été lancés et l'équipe a bien grandit ! Nous sommes aujourd'hui 140 répartis sur 4 bureaux en Europe. En 2020, nous poursuivons notre croissance soutenue par une nouvelle levée de fonds de 20 millions d'€ pour réaliser nos ambiteux objectifs dont:</p>\n\n<ul>\n<li>Le renforcement de l'équipe et l’ouverture à l’international : Après l'Espagne, la République Tchéque et la Slovaquie, cap sur l'Allemagne et le UK. </li>\n<li>Le lancement imminent d'un nouveau produit SaaS B2B</li>\n<li>Le lancement d'une offre B2C premium</li>\n</ul>\n\n<p>Directement rattaché(e) à <a href=\"https://www.linkedin.com/in/camillefauran/\" target=\"_blank\">Camille</a> (Head of Operations), tu rejoins notre équipe Operations composée d'une dizaine de personnes (Talent Acquisition, Strategy, Finance, Legal et Office Management). </p>\n\n<p>Ton rôle sera d'accompagner <a href=\"https://www.linkedin.com/in/kevin-le-roy/\" target=\"_blank\">Kevin</a> dans le développement de l'<a href=\"https://recruiters.welcometothejungle.com/team/tech/\" target=\"_blank\">équipe tech</a> de Welcome to the Jungle. Tu interviendras sur l'ensemble des métiers, à savoir : Engineering, Product, Data &amp; Design.  A date, une vingtaine de personnes compose cette équipe : Front-end et back-end Developers, Product Managers, Product Designers, Data Scientists, etc. </p>\n\n<p>Ta mission s’articule principalement autour des éléments suivants :</p>\n\n<p><strong>Recrutement</strong></p>\n\n<ul>\n<li>Mise en place d'une stratégie de recrutement technique efficiente </li>\n<li>Formalisation des besoins de recrutement avec<a href=\"https://www.linkedin.com/in/kevin-le-roy/\" target=\"_blank\">Kevin</a> </li>\n<li>Rédaction, diffusion des annonces et pré-sélection des candidats mais surtout approche directe via différents canaux : linkedin, plateformes tech, events, réseau, etc. </li>\n<li>Participation au process de sélection des candidats </li>\n<li>S'assurer que l'expérience candidat soit la plus appréciable possible pour les candidats </li>\n<li>Suivi et reporting de l'activité recrutement technique </li>\n</ul>\n\n<p><strong>Marque employeur</strong></p>\n\n<ul>\n<li>Réflexion autour de la marque employeur tech de Welcome to the Jungle </li>\n<li>Mise en place d'une stratégie de contenu et d'évenementiel à déstination des populations techniques </li>\n<li>Suivi et reporting des actions </li>\n</ul>\n\n<p><strong>Mieux comprendre le rôle d'un recruteur chez Welcome to the Jungle</strong></p>\n\n<p>Afin de mieux comprendre le rôle d'un recruteur chez nous, nous t'invitons à regarder les vidéos suivantes :</p>\n\n<ul>\n<li><a href=\"https://youtu.be/vvNa8YBIbDU\" target=\"_blank\">L'interview de Talal, Talent Acquisition Manager</a></li>\n<li>\n<a href=\"https://youtu.be/g7Pr8tYVKWw\" target=\"_blank\">L'interview de Jeremy, CEO and co-founder</a> </li>\n<li><a href=\"https://youtu.be/ePwaNG7Is7Y\" target=\"_blank\">L'interview de Camille, Head of Operations</a></li>\n</ul>\n\n<p><strong>Ce que nous te garantissons de trouver chez Welcome to the Jungle</strong> </p>\n\n<ul>\n<li>Un projet ambitieux dans le secteur du recrutement et de la marque employeur… et des idées à la pelle pour le faire grandir !</li>\n<li>Une équipe de 140+ personnes soudées, enthousiastes et passionnées pour faire construire et faire grandir notre projet</li>\n<li>Des compétences extrêmement variées (production vidéo, tech, content,… ) et donc un environnement de travail riche et stimulant</li>\n<li>De nombreux event internes : Jungle Party, Jungle Talks, conférences, team building…</li>\n</ul>\n\n<p>Si tu souhaites faire du <a href=\"https://www.youtube.com/watch?v=_WHhuUD6yGo\" target=\"_blank\">remote</a> ou aller travailler en espace de co-working régulièrement ce n'est pas un problème. Le principal étant que chacun puisse avancer dans les meilleures conditions.</p>\n",
        "published_at": "2019-11-18T16:31:30.230+01:00",
        "created_at": {
          "fr": "Le 06 Novembre 2019 à 16h58",
          "en": "The 06 November 2019 at 16h58"
        },
        "office": {
          "id": 196,
          "name": "Paris",
          "address": "16 Rue du Mail",
          "zip_code": "75002",
          "district": "Paris",
          "city": "Paris",
          "country": {
            "fr": "France",
            "en": "France"
          }
        },
        "department": {
          "id": 31,
          "name": "Operations"
        },
        "contract_type": {
          "en": "Full-Time",
          "fr": "CDI",
          "es": "Contrato indefinido",
          "cs": "Plný úvazek",
          "sk": "Zmluva na dobu neurčitú"
        },
        "profile": "<p>Il n’y a pas de profil type chez Welcome to the Jungle, nous venons tous d’horizons différents et c’est ce qui fait notre force !</p>\n\n<p>Nous t’invitons à postuler si tu es motivé(e) et intéressé(e) par les médias et par le domaine de l’emploi de manière générale et si :</p>\n\n<ul>\n<li>Tu as au minimum 3 ans d'expérience en tant que Technical Recruiter / Talent Acqusition Specialist / Talent Acquistion Manager / Consultant en recrutement technique avec de nombreux recrutements techniques à ton actif </li>\n<li>Tu as envie de recruter des profils qui seront en charge de développer un produit auquel tu crois réellement !</li>\n<li>Tu es orienté résultats et la chasse ne te fait pas peur, au contraire :) </li>\n<li>Tu es organisé, tu peux gérer de front plusieurs recherches urgentes en parallèle !</li>\n</ul>\n",
        "recruitment_process": "<p>Le CV n'est pas obligatoire si ton profil LinkedIn est à jour.</p>\n\n<ul>\n<li>Etape 1 : Echange téléphonique avec <a href=\"https://www.linkedin.com/in/talalrahoui/\" target=\"_blank\">Talal</a> de 30 minutes environ</li>\n<li>Etape 2 : Rencontre avec <a href=\"https://www.linkedin.com/in/talalrahoui/\" target=\"_blank\">Talal</a> et <a href=\"https://www.linkedin.com/in/kevin-le-roy/\" target=\"_blank\">Kevin</a> dans nos bureaux</li>\n<li>Etape 3 : Cas pratique qui te permettra de te projeter concrètement dans le poste </li>\n<li>Etape 4 : Rencontre avec <a href=\"https://www.linkedin.com/in/jeremycledat/\" target=\"_blank\">Jeremy</a> et <a href=\"https://www.linkedin.com/in/camillefauran/\" target=\"_blank\">Camille</a> dans nos bureaux </li>\n</ul>\n",
        "salary": {
          "min": null,
          "max": null,
          "currency": "EUR",
          "period": "none"
        },
        "cms_sites_references": [
          "wttj_fr"
        ],
        "websites_urls": [
          {
            "website_reference": "wttj_fr",
            "url": "https://www.welcometothejungle.com/companies/wttj/jobs/technical-recruiter_paris"
          }
        ]
      },
      {
        "id": 83313,
        "reference": "WTTJ_RDk3MM8",
        "name": "Sales Development Manager",
        "slug": "sales-development-manager_paris",
        "description": "<p>Au sein de notre équipe Business, ton rôle sera de commercialiser notre offre B2B. Celle-ci comporte : </p>\n\n<ul>\n<li>La création d'un <a href=\"https://www.welcometothejungle.co/fr/companies\" target=\"_blank\">profil entreprise</a> sur notre site Welcome to the Jungle</li>\n<li>La diffusion illimitée des annonces de recrutement</li>\n<li>L'accès à notre produit SaaS : Welcome Kit. Il s'agit d'un outil de gestion des candidatures (Applicant Tracking System).</li>\n</ul>\n\n<p>Pour cela, tu seras en charge de la création et du développment d'un portefeuille de clients variés : moyens et/ou grands comptes dans différents secteurs d'activité.</p>\n\n<p>Ta mission s’articule principalement autour de 5 axes :</p>\n\n<ul>\n<li>Prise de rendez-vous avec les leads entrants</li>\n<li>Prise de rendez-vous avec les leads générés par nos actions marketing (création de contenu, évenementiel, etc.)</li>\n<li>Prospection de nouveaux clients potentiels et prise de rendez-vous physiques ou téléphoniques </li>\n<li>Gestion de la relation commerciale jusqu’à la signature du contrat</li>\n<li>Partage des améliorations potentielles identifiées au travers des différents échanges avec les prospects (ton input sera décisif dans l’évolution du site et de notre produit SaaS)</li>\n</ul>\n\n<p><strong>Mieux comprendre le rôle des Sales Development Manager</strong></p>\n\n<p>Afin de mieux comprendre le rôle des SDM chez nous, nous t'invitons à regarder les vidéos suivantes :</p>\n\n<ul>\n<li><a href=\"https://youtu.be/ZZqGA6CU-_0\" target=\"_blank\">L'interview de Mélanie, Sales Team Manager</a></li>\n<li><a href=\"https://youtu.be/kDG0gHLOMIw\" target=\"_blank\">L'interview de Sebastien, Sales Team Manager</a></li>\n<li><a href=\"https://youtu.be/BzpjutuTdf0\" target=\"_blank\">L'interview de Pierre-Gaël, Head of Business</a></li>\n</ul>\n\n<p><strong>Onboarding</strong> </p>\n\n<p>En plus de l'onboarding que chaque nouvelle recrue va suivre (qui consiste à découvrir l'ensemble de nos métiers), un programme de formation est prévu par l'équipe business. L'idée étant de te donner toutes les armes nécessaires pour atteindre tes objectifs commerciaux.</p>\n\n<p>*<em>Stack business *</em></p>\n\n<ul>\n<li>Pipedrive</li>\n<li>LinkedIn Sales Navigator</li>\n<li>NetSuite</li>\n<li>GetAccept</li>\n</ul>\n\n<p><strong>Ce que nous te garantissons de trouver chez Welcome to the Jungle</strong> </p>\n\n<ul>\n<li>Un projet ambitieux dans le secteur du recrutement et de la marque employeur… et des idées à la pelle pour le faire grandir !</li>\n<li>Une équipe de 135+ personnes soudées, enthousiastes et passionnées pour faire construire et faire grandir notre projet</li>\n<li>Des compétences extrêmement variées (production vidéo, tech, content,… ) et donc un environnement de travail riche et stimulant</li>\n<li>De nombreux event internes : Jungle Party, Jungle Talks, conférences, team Building…</li>\n</ul>\n\n<p>Si tu souhaites faire du <a href=\"https://www.youtube.com/watch?v=_WHhuUD6yGo\" target=\"_blank\">remote</a> ou aller travailler en espace de co-working régulièrement ce n'est pas un problème. Le principal étant que chacun puisse avancer dans les meilleures conditions.</p>\n",
        "published_at": "2019-11-07T14:37:02.364+01:00",
        "created_at": {
          "fr": "Le 07 Décembre 2018 à 12h37",
          "en": "The 07 December 2018 at 12h37"
        },
        "office": {
          "id": 196,
          "name": "Paris",
          "address": "16 Rue du Mail",
          "zip_code": "75002",
          "district": "Paris",
          "city": "Paris",
          "country": {
            "fr": "France",
            "en": "France"
          }
        },
        "department": {
          "id": 10,
          "name": "Business"
        },
        "contract_type": {
          "en": "Full-Time",
          "fr": "CDI",
          "es": "Contrato indefinido",
          "cs": "Plný úvazek",
          "sk": "Zmluva na dobu neurčitú"
        },
        "profile": "<p>Il n’y a pas de profil type chez Welcome to the Jungle, nous venons tous d’horizons différents et c’est ce qui fait notre force !</p>\n\n<p>Nous t’invitons à postuler si tu es motivé(e) et intéressé(e) par les médias et par le domaine de l’emploi de manière générale et si :</p>\n\n<ul>\n<li>Tu as au minimum 2 ans d'expérience en tant que Sales / Business Developer / SDR au sein d'un environnement digital et idéalement B2B </li>\n<li>Tu as envie de vendre un produit auquel tu crois réellement !</li>\n<li>Tu es orienté résultats</li>\n<li>Tu disposes d'un véritable esprit d'équipe, tu favorises les résultats de l'équipe avant tout </li>\n</ul>\n\n<p>Welcome to the Jungle ayant un positionnement nouveau sur son marché, nous passons beaucoup plus de temps à expliquer ce que nous faisons qu'à le vendre. Cela implique donc une finesse de discours et une capacité d'écoute des problématiques de nos interlocuteurs importante. </p>\n",
        "recruitment_process": "<p>Le CV n'est pas obligatoire si ton profil LinkedIn est à jour.</p>\n\n<ul>\n<li>Etape 1 : Echange téléphonique avec <a href=\"https://www.linkedin.com/in/talalrahoui/\" target=\"_blank\">Talal</a> de 30 minutes environ</li>\n<li>Etape 2 : Rencontre avec <a href=\"https://www.linkedin.com/in/talalrahoui/\" target=\"_blank\">Talal</a> et un Sales Team Manager de l'équipe dans nos bureaux</li>\n<li>Etape 3 : Rencontre avec <a href=\"https://www.linkedin.com/in/jeremycledat/\" target=\"_blank\">Jeremy</a> et <a href=\"https://www.linkedin.com/in/pierregaelpasquiou/\" target=\"_blank\">Pierre-Gaël</a> dans nos bureaux </li>\n</ul>\n",
        "salary": {
          "min": null,
          "max": null,
          "currency": "EUR",
          "period": "none"
        },
        "cms_sites_references": [
          "wttj_fr"
        ],
        "websites_urls": [
          {
            "website_reference": "wttj_fr",
            "url": "https://www.welcometothejungle.com/companies/wttj/jobs/sales-development-manager_paris"
          }
        ]
      },
      {
        "id": 140267,
        "reference": "WTTJ_KbOOxpe",
        "name": "Sales Development Representative - France",
        "slug": "sales-development-representative-france_paris",
        "description": "<p>Directement rattaché(e) à <a href=\"http://https://www.linkedin.com/in/pierregaelpasquiou/\" target=\"_blank\">Pierre-Gaël</a> (Head of Business), tu rejoins notre équipe business composée d'une trentaine de personnes réparties sur les métiers suivants :</p>\n\n<ul>\n<li>Sales Development Manager, en charge de la signature de nouveaux contrats</li>\n<li>Onboarding Manager, en charge de l'accompagnement et la formation de nos clients sur la plateforme</li>\n<li>Account Manager, en charge de la fidélisation de nos clients d'une année à l'autre.</li>\n</ul>\n\n<p>Ton rôle sera de qualifier et d'identifier des leads business en collaboration avec les équipes marketing pour les transformer en véritables opportunités commerciales pour les Sales Development Manager. En tant que premier Sales Development Representative, tu devras également mettre en place les process et les outils nécessaires afin de faire grandir cette nouvelle équipe.</p>\n\n<p>Plus précisément, ta mission sera de : </p>\n\n<ul>\n<li>Connaître parfaitement l'intégralité de l'offre Welcome to the Jungle pour la présenter clairement à de potentiels clients</li>\n<li>Traiter efficacemment les inbounds générés par les équipes marketing et les qualifier lors d'un premier échange téléphonique</li>\n<li>Identifier de potentiels prospects pertinents (outbound) et récolter les informations nécessaires</li>\n<li>Reporter l'ensemble des informations récoltées clairement dans notre CRM (pipedrive)</li>\n<li>Organiser des rendez-vous commerciaux pour nos Sales Development Managers </li>\n<li>Se coordonner régulièrement avec les équipes marketing pour optimiser la stratégie et le taux de conversion</li>\n<li>Structurer et formaliser les process du métier de SDR chez WTTJ</li>\n</ul>\n\n<p>Quelques informations complémentaires sur ce que nous te proposons chez WTTJ :</p>\n\n<p><strong>Onboarding</strong> </p>\n\n<p>En plus de l'onboarding que chaque nouvelle recrue va suivre (qui consiste à découvrir l'ensemble de nos métiers), un programme de formation est prévu par l'équipe business. L'idée étant de te donner toutes les armes nécessaires pour atteindre tes objectifs. Tu passeras également du temps avec les équipes marketing pour comprendre leur fonctionnement et construire avec eux le process de gestion des inbound.</p>\n\n<p>*<em>Stack business *</em></p>\n\n<ul>\n<li>Pipedrive</li>\n<li>LinkedIn / Sales Navigator</li>\n<li>GetAccept</li>\n</ul>\n\n<p><strong>Ce que nous te garantissons de trouver chez Welcome to the Jungle</strong> </p>\n\n<ul>\n<li>Un projet ambitieux dans le secteur du recrutement et de la marque employeur… et des idées à la pelle pour le faire grandir !</li>\n<li>Une équipe de 135+ personnes soudées, enthousiastes et passionnées pour faire construire et faire grandir notre projet</li>\n<li>Des compétences extrêmement variées (production vidéo, tech, content,… ) et donc un environnement de travail riche et stimulant</li>\n<li>De nombreux event internes : Jungle Party, Jungle Talks, Conférences, Team Building…</li>\n</ul>\n\n<p>Si tu souhaites faire du <a href=\"https://www.youtube.com/watch?v=_WHhuUD6yGo\" target=\"_blank\">remote</a> ou aller travailler en espace de co-working régulièrement ce n'est pas un problème. Le principal étant que chacun puisse avancer dans les meilleures conditions.</p>\n\n<p>*<em>Tu souhaites en savoir plus sur l'équipe Business ? *</em></p>\n\n<ul>\n<li><a href=\"https://youtu.be/ZZqGA6CU-_0\" target=\"_blank\">L'interview de Mélanie, Sales Team Manager</a></li>\n<li><a href=\"https://youtu.be/kDG0gHLOMIw\" target=\"_blank\">L'interview de Sebastien, Sales Team Manager</a></li>\n<li><a href=\"https://youtu.be/hDXvOzHJjZs\" target=\"_blank\">Interview de Clémentine, Key Account Manager</a></li>\n<li><a href=\"https://youtu.be/BzpjutuTdf0\" target=\"_blank\">Interview de Pierre-Gaël, Head of Business</a></li>\n</ul>\n",
        "published_at": "2019-11-07T14:28:05.938+01:00",
        "created_at": {
          "fr": "Le 13 Septembre 2019 à 16h39",
          "en": "The 13 September 2019 at 16h39"
        },
        "office": {
          "id": 196,
          "name": "Paris",
          "address": "16 Rue du Mail",
          "zip_code": "75002",
          "district": "Paris",
          "city": "Paris",
          "country": {
            "fr": "France",
            "en": "France"
          }
        },
        "department": {
          "id": 10,
          "name": "Business"
        },
        "contract_type": {
          "en": "Full-Time",
          "fr": "CDI",
          "es": "Contrato indefinido",
          "cs": "Plný úvazek",
          "sk": "Zmluva na dobu neurčitú"
        },
        "profile": "<p>Il n’y a pas de profil type chez Welcome to the Jungle, nous venons tous d’horizons différents et c’est ce qui fait notre force !</p>\n\n<p>Nous t’invitons à postuler si tu es motivé(e) et intéressé(e) par les médias et par le domaine de l’emploi de manière générale et si :</p>\n\n<ul>\n<li>Tu as une première experience (2 à 3 ans minimum) réussie sur une fonction commerciale en prospection idéalement dans une entreprise SaaS ou en B2B</li>\n<li>Tu as un excellent sens du relationnel et une communication parfaite à l'écrit comme à l'oral</li>\n<li>Tu as le sens de l'écoute et sais rebondir pour comprendre le besoin d'un prospect</li>\n<li>Tu es organisé, rigoureux et efficace ; tu sais notamment organiser ton temps et le suivi de tes actions</li>\n<li>Tu aimes le challenge et tu a le sens du résultat</li>\n<li>Tu aimes travailler en équipe</li>\n</ul>\n",
        "recruitment_process": "<p>Le CV n'est pas obligatoire si ton profil LinkedIn est à jour.</p>\n\n<ul>\n<li>Etape 1 : Echange téléphonique avec <a href=\"https://www.linkedin.com/in/talalrahoui/\" target=\"_blank\">Talal</a> de 30 minutes environ</li>\n<li>Etape 2 : Rencontre avec <a href=\"https://www.linkedin.com/in/elsa-groschaus/\" target=\"_blank\">Elsa</a> et un(e) Sales Team Manager</li>\n<li>Etape 3 : Rencontre avec  <a href=\"https://www.linkedin.com/in/pierregaelpasquiou/\" target=\"_blank\">Pierre-Gaël</a>  &amp; <a href=\"https://www.linkedin.com/in/jeremycledat/\" target=\"_blank\">Jeremy</a> dans nos bureaux </li>\n</ul>\n",
        "salary": {
          "min": null,
          "max": null,
          "currency": "EUR",
          "period": "none"
        },
        "cms_sites_references": [
          "wttj_fr"
        ],
        "websites_urls": [
          {
            "website_reference": "wttj_fr",
            "url": "https://www.welcometothejungle.com/companies/wttj/jobs/sales-development-representative-france_paris"
          }
        ]
      }
    ],
    "websites": [
      {
        "reference": "wttj_fr",
        "kind": "external_wttj",
        "root_url": "https://www.welcometothejungle.com"
      }
    ]
  }